0 0 0 -15.7321095416025	41.1319183942425 430.221477033615
54
0	515.8693	277.8965
1	583.5502	272.5721
2	651.7607	266.9744
3	720.2949	260.8973
4	790.1132	256.0043
5	859.9237	249.1396
6	522.3723	313.1295
7	586.3444	307.7922
8	650.774		302.2929
9	715.7407	296.9236
10	781.2515	291.8903
11	847.1483	286.0372
12	528.377		344.2148
13	589.0179	339.2693
14	649.962		334.179
15	711.3802	329.5584
16	773.5969	324.5703
17	836.0327	319.639
18	533.9246	372.9324
19	591.3966	367.844
20	649.2222	363.2157
21	707.8269	358.6924
22	766.73		353.9317
23	826.0347	349.7094
24	538.7871	398.2589
25	593.7182	393.8573
26	648.751		389.5878
27	704.2127	384.9748
28	760.412		380.6987
29	816.9399	376.8809
30	543.0333	421.1131
31	595.5899	417.1032
32	648.1594	413.1991
33	701.2549	409.1772
34	754.8532	404.9544
35	808.7383	401.0378
36	547.1076	442.6494
37	597.2094	438.337
38	647.8374	435.6397
39	698.6644	431.9753
40	749.7689	427.0836
41	801.1417	423.6851
42	550.9134	462.2057
43	598.9092	458.1427
44	647.3208	455.6526
45	696.1622	452.8474
46	745.0238	447.879
47	794.2804	444.1015
48	554.1364	480.2737
49	600.3268	476.3396
50	646.9824	473.8618
51	693.9648	472.1022
52	740.8849	467.0013
53	788.0601	463.1329
