0 0 0 -96.9108749011641	20.4297600591311	456.783356652463
54
0	331.8883	330.331
1	326.7976	297.0011
2	320.9899	259.2819
3	314.3811	216.3993
4	306.9306	168.8034
5	298.6952	111.8737
6	397.1241	331.3334
7	395.8114	297.7611
8	394.144		260.2529
9	392.2852	217.7926
10	390.2851	169.9612
11	388.1395	114.2026
12	461.087		331.8747
13	463.2816	298.6354
14	465.8338	261.2859
15	468.4637	219.6738
16	471.8323	172.019
17	475.3485	117.373
18	523.9156	333.048
19	529.5706	299.3561
20	535.9283	262.7786
21	542.9952	221.201
22	551.1436	174.0762
23	560.716		120.6517
24	585.4849	333.7741
25	594.8229	300.7025
26	604.8653	264.0222
27	616.1572	222.9372
28	629.2173	176.2031
29	644.1811	123.6882
30	646.5806	334.114
31	658.8518	301.1823
32	672.6973	264.9665
33	688.1617	224.4304
34	706.0038	178.1375
35	726.1464	125.8707
36	706.7405	334.9891
37	722.1341	301.92
38	739.8575	266.8454
39	759.661		227.0357
40	781.6201	180.048
41	806.937		128.217
42	766.2587	335.8961
43	784.9118	302.8297
44	806.0714	268.0311
45	829.8137	229.2379
46	856.0957	182.795
47	886.0806	131.0587
48	825.2475	336.0745
49	847.1049	303.7975
50	871.7314	269.1796
51	899.1642	232.0327
52	929.3167	185.1942
53	963.9747	134.1307
