ply
format ascii 1.0
element vertex 10
property float x
property float y
property float z
end_header
6.41818 3.15457 34.0658
13.0225 3.3239 36.7465
19.7825 5.69553 37.2194
28.0249 8.12472 37.1723
37.2637 9.45585 35.8262
48.4 13.2437 35.127
61.592 17.4136 34.8096
78.8992 21.4192 35.5246
135.159 62.202 46.1455
136.296 37.9787 31.6548
