ply
format ascii 1.0
element vertex 54
property float x
property float y
property float z
end_header
-141.517 1.11801 63.5726
-111.968 -27.5676 50.5626
-82.4914 -56.5736 37.7218
-53.0177 -85.8317 25.0779
-23.1781 -114.794 11.4939
6.5812 -144.506 -0.944001
-109.435 25.1581 82.3816
-79.9431 -3.6054 69.8135
-50.5404 -32.6101 57.1534
-21.0657 -61.8007 44.5954
8.56031 -91.018 31.6038
38.2397 -120.57 18.9535
-77.6792 48.8393 101.18
-48.1936 20.2195 88.7813
-18.805 -8.68237 76.4447
10.6828 -37.6732 63.738
40.2687 -67.0084 51.0464
69.9035 -96.4376 38.2628
-46.1053 72.6264 119.497
-16.7161 43.8758 107.636
12.6879 15.1809 95.2745
42.1515 -13.8873 82.8107
71.6623 -43.1989 70.3501
101.382 -72.4129 57.3851
-14.9835 95.9527 138.081
14.5245 67.4623 126.136
43.9324 38.7519 114.02
73.2887 9.78806 101.891
102.931 -19.4733 89.4333
132.644 -48.6145 76.4524
15.8751 118.896 156.82
45.3942 90.4703 144.95
74.7873 61.9646 132.905
104.285 33.1385 120.663
133.961 3.97117 108.522
163.702 -25.2711 95.8495
46.5705 141.899 175.198
76.0121 113.389 163.762
105.644 85.3092 151.097
135.234 56.6757 138.836
164.843 27.1587 127.435
194.68 -1.92999 114.925
77.1237 164.807 193.656
106.604 136.261 182.399
136.29 108.312 169.846
166.035 80.0364 157.145
195.653 50.5272 145.949
225.504 21.4162 133.871
107.626 187.47 212.559
137.126 159.096 201.144
166.904 131.15 188.659
196.785 103.465 175.286
226.424 73.8383 164.533
256.478 44.8812 152.639
